<?xml version="1.0" encoding="utf-8"?>
<!-- Generator: Adobe Illustrator 16.0.0, SVG Export Plug-In . SVG Version: 6.00 Build 0)  -->
<!DOCTYPE svg PUBLIC "-//W3C//DTD SVG 1.1 Tiny//EN" "http://www.w3.org/Graphics/SVG/1.1/DTD/svg11-tiny.dtd">
<svg version="1.1" baseProfile="tiny" id="Layer_1" xmlns="http://www.w3.org/2000/svg" xmlns:xlink="http://www.w3.org/1999/xlink"
	 x="0px" y="0px" width="64px" height="64px" viewBox="0 0 64 64" xml:space="preserve">
<g>
	<path d="M32.065,0.127c-17.638,0-31.935,14.297-31.935,31.935s14.296,31.935,31.935,31.935C49.701,63.996,64,49.699,64,32.062
		S49.701,0.127,32.065,0.127z M29.593,43.153c1.327,0,2.588-0.284,3.883-0.88c0.5-0.252,1.058-0.365,1.807-0.365
		c1.763,0,3.317,0.961,4.064,2.525c0.311,0.623,0.454,1.234,0.454,1.898c0,1.774-0.963,3.329-2.505,4.057
		c-2.533,1.141-5.131,1.717-7.703,1.717c-10.346,0-18.756-8.969-18.756-20.002c0-11.072,8.41-20.087,18.756-20.087
		c2.635,0,5.217,0.608,7.686,1.802l0.029,0.014c1.517,0.644,2.493,2.195,2.493,3.953c0,0.678-0.144,1.281-0.454,1.909
		c-0.774,1.618-2.291,2.619-3.977,2.619c-0.617,0-1.314-0.167-1.923-0.471c-1.256-0.581-2.518-0.865-3.854-0.865
		c-5.405,0-9.806,4.995-9.806,11.126C19.787,38.195,24.188,43.153,29.593,43.153z M48.792,44.81c-2.337,0-4.502-1.9-4.502-4.549
		c0-2.32,2.165-4.473,4.502-4.473c2.585,0,4.505,2.152,4.505,4.473C53.297,42.909,51.377,44.81,48.792,44.81z M48.792,28.288
		c-2.337,0-4.502-1.901-4.502-4.551c0-2.318,2.165-4.469,4.502-4.469c2.585,0,4.505,2.15,4.505,4.469
		C53.297,26.387,51.377,28.288,48.792,28.288z"/>
</g>
</svg>
